[        
    {
        "name": "F_G0.4_P0.6_numerize0_nm20_sr50_5sections_DensDist_20x",
        "train": "dataset/adult_train2.csv",
        "sample": "dataset/adult_valid.csv",
        "complementary": "dataset/adult_comp.csv",
        "GAN_output": "expdir/adult-VGAN-c-dp-KL-1-with-split-bigsample-gpu-20x/sample_data_1_6_4_19.csv",
        "just_eval": true,
        "final_output": "results/0.8+0.8_numerize0_nm20_sr50_1sections_DensDist",
        "dataset_name": "adult",
        "target_dataset_size": 5000,
        "pool_size": 20,
        "section_num": 5,
        "normalize_cols":[],
        "gmm_cols":[0,2,4,10,11,12],
        "one-hot_cols":[1,3,5,6,7,8,9,13],
        "numerize":0,
        "ordinal_cols":[],
        "bins": 100,
        "num_marginals": 20,
        "distance_measure": "Density_distance_area",
        "selection_noise": 0.6,
        "selection_range": 50,
        "model": "VGAN",
        "KL": "True",
        "ng":5000,
        "nd":10,
        "n_search": 7,
        "rand_search": "yes",
        "train_method":"CTrain_dp",
        "eps":0.9,
        "label": "income"
    },
    {
        "name": "F_G0.4_P0.6_numerize0_nm20_sr50_5sections_DensDist_20x",
        "train": "dataset/adult_train2.csv",
        "sample": "dataset/adult_valid.csv",
        "complementary": "dataset/adult_comp.csv",
        "GAN_output": "expdir/adult-VGAN-c-dp-KL-1-with-split-bigsample-gpu-20x/sample_data_1_6_4_19.csv",
        "just_eval": true,
        "final_output": "results/0.8+0.8_numerize0_nm20_sr50_1sections_DensDist",
        "dataset_name": "adult",
        "target_dataset_size": 5000,
        "pool_size": 20,
        "section_num": 5,
        "normalize_cols":[],
        "gmm_cols":[0,2,4,10,11,12],
        "one-hot_cols":[1,3,5,6,7,8,9,13],
        "numerize":0,
        "ordinal_cols":[],
        "bins": 100,
        "num_marginals": 20,
        "distance_measure": "Density_distance_area",
        "selection_noise": 0.6,
        "selection_range": 50,
        "model": "VGAN",
        "KL": "True",
        "ng":5000,
        "nd":10,
        "n_search": 7,
        "rand_search": "yes",
        "train_method":"CTrain_dp",
        "eps":0.9,
        "label": "income"
    },
    {
        "name": "F_G0.4_P1.6_numerize0_nm20_sr50_5sections_DensDist_20x",
        "train": "dataset/adult_train2.csv",
        "sample": "dataset/adult_valid.csv",
        "complementary": "dataset/adult_comp.csv",
        "GAN_output": "expdir/adult-VGAN-c-dp-KL-2-with-split-bigsample-gpu-20x/sample_data_2_2_4_19.csv",
        "just_eval": true,
        "final_output": "results/0.8+0.8_numerize0_nm20_sr50_1sections_DensDist",
        "dataset_name": "adult",
        "target_dataset_size": 5000,
        "pool_size": 20,
        "section_num": 5,
        "normalize_cols":[],
        "gmm_cols":[0,2,4,10,11,12],
        "one-hot_cols":[1,3,5,6,7,8,9,13],
        "numerize":0,
        "ordinal_cols":[],
        "bins": 100,
        "num_marginals": 20,
        "distance_measure": "Density_distance_area",
        "selection_noise": 0.6,
        "selection_range": 50,
        "model": "VGAN",
        "KL": "True",
        "ng":5000,
        "nd":10,
        "n_search": 7,
        "rand_search": "yes",
        "train_method":"CTrain_dp",
        "eps":0.9,
        "label": "income"
    },
    {
        "name": "F_G0.4_P1.6_numerize0_nm20_sr50_5sections_DensDist_20x",
        "train": "dataset/adult_train2.csv",
        "sample": "dataset/adult_valid.csv",
        "complementary": "dataset/adult_comp.csv",
        "GAN_output": "expdir/adult-VGAN-c-dp-KL-2-with-split-bigsample-gpu-20x/sample_data_2_2_4_19.csv",
        "just_eval": true,
        "final_output": "results/0.8+0.8_numerize0_nm20_sr50_1sections_DensDist",
        "dataset_name": "adult",
        "target_dataset_size": 5000,
        "pool_size": 20,
        "section_num": 5,
        "normalize_cols":[],
        "gmm_cols":[0,2,4,10,11,12],
        "one-hot_cols":[1,3,5,6,7,8,9,13],
        "numerize":0,
        "ordinal_cols":[],
        "bins": 100,
        "num_marginals": 20,
        "distance_measure": "Density_distance_area",
        "selection_noise": 0.6,
        "selection_range": 50,
        "model": "VGAN",
        "KL": "True",
        "ng":5000,
        "nd":10,
        "n_search": 7,
        "rand_search": "yes",
        "train_method":"CTrain_dp",
        "eps":0.9,
        "label": "income"
    },
    {
        "name": "F_G0.4_P2.6_numerize0_nm20_sr50_5sections_DensDist_20x",
        "train": "dataset/adult_train2.csv",
        "sample": "dataset/adult_valid.csv",
        "complementary": "dataset/adult_comp.csv",
        "GAN_output": "expdir/adult-VGAN-c-dp-KL-3-with-split-bigsample-gpu-20x/sample_data_3_2_4_19.csv",
        "just_eval": true,
        "final_output": "results/0.8+0.8_numerize0_nm20_sr50_1sections_DensDist",
        "dataset_name": "adult",
        "target_dataset_size": 5000,
        "pool_size": 20,
        "section_num": 5,
        "normalize_cols":[],
        "gmm_cols":[0,2,4,10,11,12],
        "one-hot_cols":[1,3,5,6,7,8,9,13],
        "numerize":0,
        "ordinal_cols":[],
        "bins": 100,
        "num_marginals": 20,
        "distance_measure": "Density_distance_area",
        "selection_noise": 0.6,
        "selection_range": 50,
        "model": "VGAN",
        "KL": "True",
        "ng":5000,
        "nd":10,
        "n_search": 7,
        "rand_search": "yes",
        "train_method":"CTrain_dp",
        "eps":0.9,
        "label": "income"
    },
    {
        "name": "F_G0.4_P2.6_numerize0_nm20_sr50_5sections_DensDist_20x",
        "train": "dataset/adult_train2.csv",
        "sample": "dataset/adult_valid.csv",
        "complementary": "dataset/adult_comp.csv",
        "GAN_output": "expdir/adult-VGAN-c-dp-KL-3-with-split-bigsample-gpu-20x/sample_data_3_2_4_19.csv",
        "just_eval": true,
        "final_output": "results/0.8+0.8_numerize0_nm20_sr50_1sections_DensDist",
        "dataset_name": "adult",
        "target_dataset_size": 5000,
        "pool_size": 20,
        "section_num": 5,
        "normalize_cols":[],
        "gmm_cols":[0,2,4,10,11,12],
        "one-hot_cols":[1,3,5,6,7,8,9,13],
        "numerize":0,
        "ordinal_cols":[],
        "bins": 100,
        "num_marginals": 20,
        "distance_measure": "Density_distance_area",
        "selection_noise": 0.6,
        "selection_range": 50,
        "model": "VGAN",
        "KL": "True",
        "ng":5000,
        "nd":10,
        "n_search": 7,
        "rand_search": "yes",
        "train_method":"CTrain_dp",
        "eps":0.9,
        "label": "income"
    },
    {
        "name": "F_G0.4_P3.6_numerize0_nm20_sr50_5sections_DensDist_20x",
        "train": "dataset/adult_train2.csv",
        "sample": "dataset/adult_valid.csv",
        "complementary": "dataset/adult_comp.csv",
        "GAN_output": "expdir/adult-VGAN-c-dp-KL-4-with-split-bigsample-gpu-20x/sample_data_4_5_4_19.csv",
        "just_eval": true,
        "final_output": "results/0.8+0.8_numerize0_nm20_sr50_1sections_DensDist",
        "dataset_name": "adult",
        "target_dataset_size": 5000,
        "pool_size": 20,
        "section_num": 5,
        "normalize_cols":[],
        "gmm_cols":[0,2,4,10,11,12],
        "one-hot_cols":[1,3,5,6,7,8,9,13],
        "numerize":0,
        "ordinal_cols":[],
        "bins": 100,
        "num_marginals": 20,
        "distance_measure": "Density_distance_area",
        "selection_noise": 0.6,
        "selection_range": 50,
        "model": "VGAN",
        "KL": "True",
        "ng":5000,
        "nd":10,
        "n_search": 7,
        "rand_search": "yes",
        "train_method":"CTrain_dp",
        "eps":0.9,
        "label": "income"
    },
    {
        "name": "F_G0.4_P3.6_numerize0_nm20_sr50_5sections_DensDist_20x",
        "train": "dataset/adult_train2.csv",
        "sample": "dataset/adult_valid.csv",
        "complementary": "dataset/adult_comp.csv",
        "GAN_output": "expdir/adult-VGAN-c-dp-KL-4-with-split-bigsample-gpu-20x/sample_data_4_5_4_19.csv",
        "just_eval": true,
        "final_output": "results/0.8+0.8_numerize0_nm20_sr50_1sections_DensDist",
        "dataset_name": "adult",
        "target_dataset_size": 5000,
        "pool_size": 20,
        "section_num": 5,
        "normalize_cols":[],
        "gmm_cols":[0,2,4,10,11,12],
        "one-hot_cols":[1,3,5,6,7,8,9,13],
        "numerize":0,
        "ordinal_cols":[],
        "bins": 100,
        "num_marginals": 20,
        "distance_measure": "Density_distance_area",
        "selection_noise": 0.6,
        "selection_range": 50,
        "model": "VGAN",
        "KL": "True",
        "ng":5000,
        "nd":10,
        "n_search": 7,
        "rand_search": "yes",
        "train_method":"CTrain_dp",
        "eps":0.9,
        "label": "income"
    },
    {
        "name": "F_G0.4_P4.6_numerize0_nm20_sr50_5sections_DensDist_20x",
        "train": "dataset/adult_train2.csv",
        "sample": "dataset/adult_valid.csv",
        "complementary": "dataset/adult_comp.csv",
        "GAN_output": "expdir/adult-VGAN-c-dp-KL-5-with-split-bigsample-gpu-20x/sample_data_5_6_4_19.csv",
        "just_eval": true,
        "final_output": "results/0.8+0.8_numerize0_nm20_sr50_1sections_DensDist",
        "dataset_name": "adult",
        "target_dataset_size": 5000,
        "pool_size": 20,
        "section_num": 5,
        "normalize_cols":[],
        "gmm_cols":[0,2,4,10,11,12],
        "one-hot_cols":[1,3,5,6,7,8,9,13],
        "numerize":0,
        "ordinal_cols":[],
        "bins": 100,
        "num_marginals": 20,
        "distance_measure": "Density_distance_area",
        "selection_noise": 0.6,
        "selection_range": 50,
        "model": "VGAN",
        "KL": "True",
        "ng":5000,
        "nd":10,
        "n_search": 7,
        "rand_search": "yes",
        "train_method":"CTrain_dp",
        "eps":0.9,
        "label": "income"
    },
    {
        "name": "F_G0.4_P4.6_numerize0_nm20_sr50_5sections_DensDist_20x",
        "train": "dataset/adult_train2.csv",
        "sample": "dataset/adult_valid.csv",
        "complementary": "dataset/adult_comp.csv",
        "GAN_output": "expdir/adult-VGAN-c-dp-KL-5-with-split-bigsample-gpu-20x/sample_data_5_6_4_19.csv",
        "just_eval": true,
        "final_output": "results/0.8+0.8_numerize0_nm20_sr50_1sections_DensDist",
        "dataset_name": "adult",
        "target_dataset_size": 5000,
        "pool_size": 20,
        "section_num": 5,
        "normalize_cols":[],
        "gmm_cols":[0,2,4,10,11,12],
        "one-hot_cols":[1,3,5,6,7,8,9,13],
        "numerize":0,
        "ordinal_cols":[],
        "bins": 100,
        "num_marginals": 20,
        "distance_measure": "Density_distance_area",
        "selection_noise": 0.6,
        "selection_range": 50,
        "model": "VGAN",
        "KL": "True",
        "ng":5000,
        "nd":10,
        "n_search": 7,
        "rand_search": "yes",
        "train_method":"CTrain_dp",
        "eps":0.9,
        "label": "income"
    }
]